…
```
## `summarise()` has grouped output by 'Num', 'Treatment', 'Name', 'Hatchery'. You
## can override using the `.groups` argument.
## `summarise()` has grouped output by 'Num', 'Treatment', 'Name', 'Hatchery'. You
## can override using the `.groups` argument.
```

```r
  Order_abundances
```

```
## # A tibble: 741 × 6
##      Num Treatment Name  Hatchery OrderOther                          sum_abun
##    <dbl> <chr>     <fct> <fct>    <fct>                                  <dbl>
##  1     1 C         T1    VIMS     Alteromonadales                      12.6   
##  2     1 C         T1    VIMS     Bacillales                           29.6   
##  3     1 C         T1    VIMS     Cellvibrionales                       0.161 
##  4     1 C         T1    VIMS     Enterobacterales                      0.0211
##  5     1 C         T1    VIMS     Flavobacteriales                      0.311 
##  6     1 C         T1    VIMS     Nannocystales                         0.214 
##  7     1 C         T1    VIMS     Nitrosococcales                       0.0316
##  8     1 C         T1    VIMS     Oceanospirillales                     1.05  
##  9     1 C         T1    VIMS     Peptostreptococcales-Tissierellales   0     
## 10     1 C         T1    VIMS     Pseudomonadales                      27.4   
## # … with 731 more rows
```
…
```r
ggsave("Figures/FigureS2.png", width=18, height=8, dpi=400)

Phylum_abundance 
```

```
## # A tibble: 342 × 6
##      Num Treatment Name  Hatchery PhylumOther    sum_abun
##    <dbl> <chr>     <fct> <fct>    <fct>             <dbl>
##  1     1 C         T1    VIMS     Bacteroidota      0.580
##  2     1 C         T1    VIMS     Firmicutes       29.7  
##  3     1 C         T1    VIMS     Myxococcota       0.214
##  4     1 C         T1    VIMS     Proteobacteria   68.3  
##  5     1 C         T1    VIMS     Unknown           0.815
##  6     1 C         T1    VIMS     Others            0.448
##  7     2 C         T1    VIMS     Bacteroidota      0.338
##  8     2 C         T1    VIMS     Firmicutes       11.7  
##  9     2 C         T1    VIMS     Myxococcota       0.153
## 10     2 C         T1    VIMS     Proteobacteria   87.4  
## # … with 332 more rows
```
…
div_Vib1 <- div_Vib %>% group_by(Num,Treatment, Trial, Tank_Replicate) %>% summarise(mean_div=mean(Simpson), sd_div=sd(Simpson))
```

```
## `summarise()` has grouped output by 'Num', 'Treatment', 'Trial'. You can
## override using the `.groups` argument.
```

```r
div_Vib1
```

```
## # A tibble: 51 × 6
## # Groups:   Num, Treatment, Trial [51]
##    Num   Treatment Trial Tank_Replicate mean_div sd_div
##    <chr> <chr>     <chr> <chr>             <dbl>  <dbl>
##  1 1     C         T1    A                 0.647 0.0420
##  2 10    C         T2    A                 0.493 0.0532
##  3 11    C         T2    B                 0.717 0.129 
##  4 12    C         T2    C                 0.289 0.0201
##  5 13    S4        T2    A                 0.574 0.140 
##  6 14    S4        T2    B                 0.679 0.0146
##  7 15    S4        T2    C                 0.634 0.111 
##  8 16    C         T3    A                 0.596 0.137 
##  9 17    C         T3    B                 0.686 0.0844
## 10 18    C         T3    C                 0.250 0.0391
## # … with 41 more rows
```
…
```
## `summarise()` has grouped output by 'Num', 'Treatment', 'Trial',
## 'Tank_Replicate', 'Hatchery'. You can override using the `.groups` argument.
```

```r
vibrioabundances
```

```
## # A tibble: 51 × 8
## # Groups:   Num, Treatment, Trial, Tank_Replicate, Hatchery [51]
##      Num Treatment Trial Tank_Replicate Hatchery Name  VibrioAbundance percent
##    <dbl> <chr>     <fct> <chr>          <fct>    <fct>           <dbl>   <dbl>
##  1     1 C         T1    A              VIMS     T1              1206.    9.54
##  2     2 C         T1    B              VIMS     T1              1597.   12.6 
##  3     3 C         T1    C              VIMS     T1              1899.   15.0 
##  4     4 S4        T1    A              VIMS     T1              4994.   39.5 
##  5     5 S4        T1    B              VIMS     T1              7364.   58.3 
##  6     6 S4        T1    C              VIMS     T1              3966.   31.4 
##  7     7 S4        T1    D              VIMS     T1              1295    10.2 
##  8     8 S4        T1    E              VIMS     T1               393.    3.11
##  9     9 S4        T1    F              VIMS     T1               485.    3.84
## 10    10 C         T2    A              VIMS     T2               532.    4.21
## # … with 41 more rows
```
…
```
## `summarise()` has grouped output by 'Num', 'Treatment', 'Trial',
## 'Tank_Replicate', 'Hatchery'. You can override using the `.groups` argument.
```

```r
vibrioabundances
```

```
## # A tibble: 57 × 8
## # Groups:   Num, Treatment, Trial, Tank_Replicate, Hatchery [57]
##      Num Treatment Trial Tank_Replicate Hatchery Name  VibrioAbundance VibrioP…¹
##    <dbl> <chr>     <fct> <chr>          <fct>    <fct>           <dbl>     <dbl>
##  1     1 C         T1    A              VIMS     T1              1206.      9.54
##  2     2 C         T1    B              VIMS     T1              1597.     12.6 
##  3     3 C         T1    C              VIMS     T1              1899.     15.0 
##  4     4 S4        T1    A              VIMS     T1              4994.     39.5 
##  5     5 S4        T1    B              VIMS     T1              7364.     58.3 
##  6     6 S4        T1    C              VIMS     T1              3966.     31.4 
##  7     7 S4        T1    D              VIMS     T1              1295      10.2 
##  8     8 S4        T1    E              VIMS     T1               393.      3.11
##  9     9 S4        T1    F              VIMS     T1               485.      3.84
## 10    10 C         T2    A              VIMS     T2               532.      4.21
## # … with 47 more rows, and abbreviated variable name ¹​VibrioPercent
```
…
